Replication of Study 1 – Development of Holistic Episodic Recollection by Ngo et al. (2019, Psychological Science)
…
[1] "Trial index 221 is present"

# Group the cleaned data by subject_id, then count the number of rows for each group
participant_row_counts <- all_data_cleaned |>
  group_by(subject_id) |>
  summarise(num_rows = n())

# Print the row counts to see the number of rows for each participant
print(participant_row_counts)

# A tibble: 77 × 2
   subject_id num_rows
        <int>    <int>
 1          1      144
 2          2      144
 3          3      144
 4          4      144
 5          5      144
 6          6      144
 7          7      144
 8          8      144
 9          9      144
10         10      144
# ℹ 67 more rows
…
