Replication of Study 1 – Development of Holistic Episodic Recollection by Ngo et al. (2019, Psychological Science)
…
# Group the cleaned data by subject_id, then count the number of rows for each group
participant_row_counts <- all_data_cleaned |>
  group_by(subject_id) |>
  summarise(num_rows = n())

# Print the row counts to see the number of rows for each participant
print(participant_row_counts)

# A tibble: 77 × 2
   subject_id               num_rows
   <chr>                       <int>
 1 558af5a1fdf99b7dfdbac177      144
 2 57a2caf8275be6000135b3aa      144
 3 586c61f6ac950900013de26f      144
 4 59a811311363d90001676ad9      144
 5 5c04872c55614800012b7cf0      144
 6 5c257b7dda51990001e2787c      144
 7 5d003450f641130018828b8e      144
 8 5d2e4fd16adc630018df841c      144
 9 5d3242e7c5edfe0001f7c080      144
10 5d5e4baff521f100166c5d3a      144
# ℹ 67 more rows
…
